Take-home Exercise 2 –
…
# A tibble: 0 × 2
# ℹ 2 variables: id <int>, n <int>

There are no duplicated id in mc1_nodes_raw.

The following code checks for name duplicates in mc1_nodes_raw.

duplicated_name <- mc1_nodes_raw %>%
  count(name) %>%
  filter(n > 1)

duplicated_name

# A tibble: 1,611 × 2
   name                 n
   <chr>            <int>
 1 Agata Records        2
 2 Ancestral Echoes     2
 3 Angela Thompson      2
 4 Anthony Davis        2
 5 Anthony Smith        2
 6 Asuka Takahashi      3
 7 Brandon Wilson       2
 8 Brian Gonzalez       2
 9 Bryan Garcia         2
10 Bryan Smith          3
# ℹ 1,601 more rows

The following code chunk shows all rows from mc1_nodes_raw that have duplicated names, and sorting them alphabetically by the name column. There are a total of 4,953 records with duplicated names in mc1_nodes_raw.

mc1_nodes_raw %>%
  filter(name %in% duplicated_name$name) %>%
  arrange(name)

# A tibble: 4,953 × 12
   `Node Type` name         single release_date genre notable    id written_date
   <chr>       <chr>        <lgl>         <int> <chr> <lgl>   <int>        <int>
 1 RecordLabel Agata Recor… NA               NA <NA>  NA       1528           NA
 2 RecordLabel Agata Recor… NA               NA <NA>  NA      17388           NA
 3 Song        Ancestral E… TRUE           1991 Drea… FALSE   11793           NA
 4 Song        Ancestral E… FALSE          2039 Avan… TRUE    17133           NA
 5 Person      Angela Thom… NA               NA <NA>  NA       1150           NA
 6 Person      Angela Thom… NA               NA <NA>  NA      13448           NA
 7 Person      Anthony Dav… NA               NA <NA>  NA       8692           NA
 8 Person      Anthony Dav… NA               NA <NA>  NA      12452           NA
 9 Person      Anthony Smi… NA               NA <NA>  NA       5719           NA
10 Person      Anthony Smi… NA               NA <NA>  NA       7694           NA
# ℹ 4,943 more rows
# ℹ 4 more variables: stage_name <chr>, notoriety_date <int>, is_sailor <lgl>,
#   is_oceanus_folk <lgl>
3.3.2 Fixing duplicates in mc1_nodes_raw

The section will focus on fixing the duplicates found in mc1_nodes_raw as identified in section 3.3.1.

The following code chunk will tag each row with a unique key (group_key) based on its respective column values. This helps to identify unique records.

# Step 1: Mark all node rows with a hash key for grouping
mc1_nodes_tagged <- mc1_nodes_raw %>%
  mutate(group_key = paste(`Node Type`, name, single, release_date, genre,
                           notable, written_date, notoriety_date, is_sailor,
                           is_oceanus_folk, sep = "|"))

mc1_nodes_tagged

# A tibble: 17,412 × 13
   `Node Type` name         single release_date genre notable    id written_date
   <chr>       <chr>        <lgl>         <int> <chr> <lgl>   <int>        <int>
 1 Song        Breaking Th… TRUE           2017 Ocea… TRUE        0           NA
 2 Person      Carlos Duffy NA               NA <NA>  NA          1           NA
 3 Person      Min Qin      NA               NA <NA>  NA          2           NA
 4 Person      Xiuying Xie  NA               NA <NA>  NA          3           NA
 5 RecordLabel Nautical Mi… NA               NA <NA>  NA          4           NA
 6 Song        Unshackled … FALSE          2026 Lo-F… TRUE        5           NA
 7 Person      Luke Payne   NA               NA <NA>  NA          6           NA
 8 Person      Xiulan Zeng  NA               NA <NA>  NA          7           NA
 9 Person      David Frank… NA               NA <NA>  NA          8           NA
10 RecordLabel Colline-Cas… NA               NA <NA>  NA          9           NA
# ℹ 17,402 more rows
# ℹ 5 more variables: stage_name <chr>, notoriety_date <int>, is_sailor <lgl>,
#   is_oceanus_folk <lgl>, group_key <chr>
…
Rename the id column to name so it becomes the primary identifier column that tidygraph will use for matching

Rename source and target columns in mc1_edges_raw, as required by tidygraph

Ensure data type consistency: Convert the name column (formerly id) to character format to match the data type of the edge references

mc1_nodes_clean <- mc1_nodes_dedup %>%
  rename(node_name = name, name = id) %>%
  mutate(name = as.character(name)) %>%
  select(`Node Type`, node_name, release_date, genre, notable, name, single, written_date, stage_name, notoriety_date, is_sailor, is_oceanus_folk)

mc1_nodes_clean

# A tibble: 14,077 × 12
   `Node Type` node_name    release_date genre notable name  single written_date
   <chr>       <chr>               <int> <chr> <lgl>   <chr> <lgl>         <int>
 1 Album       A Lush Dyst…         2031 Psyc… TRUE    17005 NA             2030
 2 Album       Addicted to…         2004 Sout… TRUE    14658 NA             2000
 3 Album       Adriatic Em…         2013 Post… TRUE    10412 NA               NA
 4 Album       Aerial Echo…         2023 Indi… TRUE    7908  NA               NA
 5 Album       Aftershock …         2028 Drea… TRUE    2030  NA             2021
 6 Album       Allegretto …         2020 Indi… TRUE    6251  NA               NA
 7 Album       Alleys and …         2029 Jazz… TRUE    1310  NA               NA
 8 Album       Alloy Archi…         2017 Indi… TRUE    8428  NA             2017
 9 Album       Almost (But…         2027 Alte… TRUE    14611 NA             2027
10 Album       Altar of De…         2020 Ocea… TRUE    5883  NA               NA
# ℹ 14,067 more rows
# ℹ 4 more variables: stage_name <chr>, notoriety_date <int>, is_sailor <lgl>,
#   is_oceanus_folk <lgl>
…
In section 3.3.2, duplicated nodes were deduplicated and removed, edges referring to the removed nodes will become invalid thus, edges will be remapped to the retained nodes. This ensures that all edges correctly point to existing nodes in the deduplicated graph.

# Step 1: Create mapping of all group_key → kept id
key_to_id_map <- mc1_nodes_dedup %>%
  select(group_key, kept_id = id)

# Step 2: Map all original rows to the retained ID
id_remap <- mc1_nodes_tagged %>%
  left_join(key_to_id_map, by = "group_key") %>%
  select(original_id = id, kept_id)

id_remap

# A tibble: 17,412 × 2
   original_id kept_id
         <int>   <int>
 1           0       0
 2           1       1
 3           2   14470
 4           3       3
 5           4       4
 6           5       5
 7           6       6
 8           7       7
 9           8       8
10           9       9
# ℹ 17,402 more rows

# Step 3: Replace edges' source and target with mapped kept_id
mc1_edges_mapped <- mc1_edges_raw %>%
  left_join(id_remap, by = c("source" = "original_id"))

mc1_edges_mapped

# A tibble: 37,854 × 4
   `Edge Type`      source target kept_id
   <chr>             <int>  <int>   <int>
 1 InterpolatesFrom      0   1841       0
 2 RecordedBy            0      4       0
 3 PerformerOf           1      0       1
 4 ComposerOf            1  16180       1
 5 PerformerOf           2      0   14470
 6 ProducerOf            2  16180   14470
 7 PerformerOf           3      0       3
 8 InterpolatesFrom      5   5088       5
 9 InStyleOf             5  14332       5
10 InterpolatesFrom      5  11677       5
# ℹ 37,844 more rows

mc1_edges_mapped <- mc1_edges_mapped %>%
  mutate(source = kept_id) %>%
  select(-kept_id) %>%
  left_join(id_remap, by = c("target" = "original_id")) %>%
  mutate(target = kept_id) %>%
  select(-kept_id) %>%
  rename(from = source, to = target) %>%
  mutate(from = as.character(from), to = as.character(to))

mc1_edges_mapped

# A tibble: 37,854 × 3
   `Edge Type`      from  to   
   <chr>            <chr> <chr>
 1 InterpolatesFrom 0     1841 
 2 RecordedBy       0     4    
 3 PerformerOf      1     0    
 4 ComposerOf       1     16180
 5 PerformerOf      14470 0    
 6 ProducerOf       14470 16180
 7 PerformerOf      3     0    
 8 InterpolatesFrom 5     5088 
 9 InStyleOf        5     14332
10 InterpolatesFrom 5     11677
# ℹ 37,844 more rows
…
# Count and display invalid edge combinations
invalid_edge_summary <- mc1_edges_tagged %>%
  filter(!valid) %>%
  count(`Edge Type`, source_type, target_type, sort = TRUE)

print(invalid_edge_summary)

# A tibble: 24 × 4
   `Edge Type`      source_type  target_type      n
   <chr>            <chr>        <chr>        <int>
 1 LyricistOf       MusicalGroup Song           106
 2 RecordedBy       RecordLabel  Album          102
 3 ProducerOf       MusicalGroup Song           100
 4 ComposerOf       MusicalGroup Song            97
 5 ProducerOf       MusicalGroup Album           31
 6 LyricistOf       MusicalGroup Album           28
 7 ComposerOf       MusicalGroup Album           17
 8 InStyleOf        MusicalGroup MusicalGroup    12
 9 InStyleOf        Person       MusicalGroup    11
10 InterpolatesFrom MusicalGroup MusicalGroup    10
# ℹ 14 more rows
…
